Cleaning & Transformation Tutorial
…
The duplicated function (a base R function), returns a logical vector indicating duplicate rows in a dataset. The vector will have the same length as the number of rows in the dataset, and will be TRUE for rows which are not unique, and FALSE otherwise.

survey %>%
    duplicated %>%
    summary

##    Mode   FALSE    TRUE 
## logical   21220     263

It seems that there are 263 in our data which are not unique. We can take a look at these by using the output of duplicated as an input of filter.55 Noticed the . within the duplicated function? The point has a special significance if used together with the piping symbol. Internally, it will be replaced with the input coming through the piping symbol. As such, gss_cat %>% filter(duplicated(.)) is equal to filter(gss_cat, duplicated(gss_cat)). Its very convenient if you need to refer to the piping input multiple times, not only as the first argument of the function.

gss_cat %>%
    filter(duplicated(.))

## # A tibble: 263 x 9
##     year marital     age race  rincome   partyid    relig  denom    tvhours
##    <int> <fct>     <int> <fct> <fct>     <fct>      <fct>  <fct>      <int>
##  1  2000 Married      48 White $25000 o~ Ind,near ~ Catho~ Not app~       1
##  2  2000 Never ma~    39 Other $25000 o~ Not str d~ Catho~ Not app~      NA
##  3  2000 Married      36 Other $25000 o~ Not str d~ Catho~ Not app~       2
##  4  2000 Never ma~    30 White $25000 o~ Not str r~ Catho~ Not app~       1
##  5  2000 Never ma~    19 White $1000 to~ Not str r~ Catho~ Not app~      NA
##  6  2000 Married      47 White $25000 o~ Not str r~ Catho~ Not app~      NA
##  7  2000 Married      29 White $25000 o~ Independe~ Catho~ Not app~       2
##  8  2000 Married      39 White $10000 -~ Not str d~ Catho~ Not app~       3
##  9  2000 Widowed      80 White Not appl~ Strong de~ Prote~ Souther~       3
## 10  2002 Married      43 White Not appl~ Independe~ Catho~ Not app~      NA
## # ... with 253 more rows

Right now we selected the duplicate rows and we can have a look at them. If we only want to retain the unique rows, we can add a !-symbol to negate the selection.

survey %>%
    filter(!duplicated(.))

## # A tibble: 21,220 x 9
##     year marital   age race  reported_income party religion denomination
##    <dbl> <fct>   <dbl> <fct> <fct>           <fct> <fct>    <fct>       
##  1  2000 Never ~    26 White $8000 to 9999   Ind,~ Protest~ Southern ba~
##  2  2000 Divorc~    48 White $8000 to 9999   Not ~ Protest~ Baptist-dk ~
##  3  2000 Widowed    67 White Not applicable  Inde~ Protest~ No denomina~
##  4  2000 Never ~    39 White Not applicable  Ind,~ Orthodo~ Not applica~
##  5  2000 Divorc~    25 White Not applicable  Not ~ None     Not applica~
##  6  2000 Married    25 White $20000 - 24999  Stro~ Protest~ Southern ba~
##  7  2000 Never ~    36 White $25000 or more  Not ~ Christi~ Not applica~
##  8  2000 Divorc~    44 White $7000 to 7999   Ind,~ Protest~ Lutheran-mo~
##  9  2000 Married    44 White $25000 or more  Not ~ Protest~ Other       
## 10  2000 Married    47 White $25000 or more  Stro~ Protest~ Southern ba~
## # ... with 21,210 more rows, and 1 more variable: tv_hours <dbl>

However, this is a little bit verbose. Therefore, dplyr contains a very handy short cut: the distinct function.

survey %>%
    distinct

## # A tibble: 21,220 x 9
##     year marital   age race  reported_income party religion denomination
##    <dbl> <fct>   <dbl> <fct> <fct>           <fct> <fct>    <fct>       
##  1  2000 Never ~    26 White $8000 to 9999   Ind,~ Protest~ Southern ba~
##  2  2000 Divorc~    48 White $8000 to 9999   Not ~ Protest~ Baptist-dk ~
##  3  2000 Widowed    67 White Not applicable  Inde~ Protest~ No denomina~
##  4  2000 Never ~    39 White Not applicable  Ind,~ Orthodo~ Not applica~
##  5  2000 Divorc~    25 White Not applicable  Not ~ None     Not applica~
##  6  2000 Married    25 White $20000 - 24999  Stro~ Protest~ Southern ba~
##  7  2000 Never ~    36 White $25000 or more  Not ~ Christi~ Not applica~
##  8  2000 Divorc~    44 White $7000 to 7999   Ind,~ Protest~ Lutheran-mo~
##  9  2000 Married    44 White $25000 or more  Not ~ Protest~ Other       
## 10  2000 Married    47 White $25000 or more  Stro~ Protest~ Southern ba~
## # ... with 21,210 more rows, and 1 more variable: tv_hours <dbl>
…
