Hoofdstuk 7 Tidy Data | Lecture Notes voor Exploratieve en Descriptieve Data Analyse
…
Stel nu dat je het effect wenst te weten van de weekdag van vertrek op de vertraging van een vlucht, maar je wil hierbij onderscheid maken tussen vertrek- en aankomstvertraging.

Volgens bovenstaande aanpak zou je dan een Y-variabele moeten hebben die de vertraging meet en een Z-variabele die het type van vertraging aangeeft (aankomst of vertrek).

Onze dataset is echter anders opgebouwd. In de beschikbare data is de vertraging van een vlucht opgeslagen met behulp van twee aparte variabelen, namelijk vertrek- en aankomstvertraging. Dit blijkt uit onderstaande tabel.

## # A tibble: 319,809 x 5
##       id vertrekluchthav~ vertrek_vertrag~ aankomst_vertra~ weekdag_vertrek
##    <int> <chr>                       <dbl>            <dbl> <ord>          
##  1     1 Newark Liberty ~                2               11 Tue            
##  2     2 La Guardia                      4               20 Tue            
##  3     3 John F Kennedy ~                2               33 Tue            
##  4     4 La Guardia                     -6              -25 Tue            
##  5     5 Newark Liberty ~               -4               12 Tue            
##  6     6 Newark Liberty ~               -5               19 Tue            
##  7     7 La Guardia                     -3              -14 Tue            
##  8     8 John F Kennedy ~               -3               -8 Tue            
##  9     9 La Guardia                     -2                8 Tue            
## 10    10 John F Kennedy ~               -2               -2 Tue            
## # ... with 319,799 more rows
…
Hiervoor kunnen we de gather() functie hanteren. Deze functie zal een set van variabelen (in dit geval ‘vertrek_vertraging’ en ‘aankomst_vertraging’) transformeren naar 2 variabelen, namelijk een key-variabele en een value-variabele.

De key-variabele is een categorische variabele en de categorieën komen overeen met de variabelenamen in onze set van variabelen die we wensen te transformeren. In ons geval zijn dit dus de categorieën ‘vertrek_vertraging’ en ‘aankomst_vertraging’.

De value-variabele bevat de bijhorende waarde uit de oorspronkelijke dataset.

De gather() functie bestaat uit 3 delen.

Eerst vermeld je alle variabelen die je wenst te vervangen.

Vervolgens geef je de naam van de nieuwe key-variabele.

Tenslotte geef je de naam van de nieuwe value-variabele.

## # A tibble: 639,618 x 5
##       id vertrekluchthaven   weekdag_vertrek type_vertraging     vertraging
##    <int> <chr>               <ord>           <chr>                    <dbl>
##  1     1 Newark Liberty Intl Tue             vertrek_vertraging           2
##  2     1 Newark Liberty Intl Tue             aankomst_vertraging         11
##  3     2 La Guardia          Tue             vertrek_vertraging           4
##  4     2 La Guardia          Tue             aankomst_vertraging         20
##  5     3 John F Kennedy Intl Tue             vertrek_vertraging           2
##  6     3 John F Kennedy Intl Tue             aankomst_vertraging         33
##  7     4 La Guardia          Tue             vertrek_vertraging          -6
##  8     4 La Guardia          Tue             aankomst_vertraging        -25
##  9     5 Newark Liberty Intl Tue             vertrek_vertraging          -4
## 10     5 Newark Liberty Intl Tue             aankomst_vertraging         12
## # ... with 639,608 more rows
…
Indien we de relatie tussen we weekdag en de gemiddelde vertraging, uitgesplitst volgens vertragingtype, wensen te visualiseren, moeten we eerst de gemiddelde vertraging berekenen.

## # A tibble: 42 x 4
## # Groups:   vertrekluchthaven, type_vertraging [6]
##    vertrekluchthaven   type_vertraging     weekdag_vertrek gem_vertraging
##    <chr>               <chr>               <ord>                    <dbl>
##  1 John F Kennedy Intl aankomst_vertraging Sun                       6.39
##  2 John F Kennedy Intl aankomst_vertraging Mon                       7.99
##  3 John F Kennedy Intl aankomst_vertraging Tue                       3.34
##  4 John F Kennedy Intl aankomst_vertraging Wed                       5.86
##  5 John F Kennedy Intl aankomst_vertraging Thu                       7.56
##  6 John F Kennedy Intl aankomst_vertraging Fri                       6.49
##  7 John F Kennedy Intl aankomst_vertraging Sat                       1.96
##  8 John F Kennedy Intl vertrek_vertraging  Sun                      11.7 
##  9 John F Kennedy Intl vertrek_vertraging  Mon                      14.7 
## 10 John F Kennedy Intl vertrek_vertraging  Tue                      10.5 
## # ... with 32 more rows
…
