Chapter 10 Tutorial - Tidy data | Exploratieve en Descriptieve Data Analyse
…
Disclaimer

There are many datasets used in this tutorial. A loadscript has been provided to create all datasets for you. Just run the script and you are good to go.

Let’s get started!

10.2 Merging data

We can merge different datasets by joining or binding.

We join different datasets which contain different information about the same observations. For example, we can have 1) a dataset of countries with their population and 2) a dataset of countries with their life expectancy. These we can join together.

countries_population

## # A tibble: 114 x 2
##    country             pop
##    <fct>             <int>
##  1 Botswana        1639131
##  2 Greece         10706290
##  3 South Africa   43997828
##  4 Ethiopia       76511887
##  5 Zimbabwe       12311143
##  6 Yemen, Rep.    22211743
##  7 Nepal          28901790
##  8 Netherlands    16570613
##  9 United States 301139947
## 10 New Zealand     4115771
## # ... with 104 more rows

countries_lifeExp

## # A tibble: 85 x 2
##    country          lifeExp
##    <fct>              <dbl>
##  1 United States       78.2
##  2 Argentina           75.3
##  3 Korea, Dem. Rep.    67.3
##  4 Bulgaria            73.0
##  5 Chile               78.6
##  6 Croatia             75.7
##  7 Canada              80.7
##  8 Honduras            70.2
##  9 Liberia             45.7
## 10 Mexico              76.2
## # ... with 75 more rows

We bind different datasets which contain the same information on different observations. For example, we can have 1) a dataset of European countries with their population and 2) a dataset of African countries with their population. We can bind these two together.44

population_africa

## # A tibble: 52 x 2
##    country                       pop
##    <fct>                       <int>
##  1 Algeria                  33333216
##  2 Angola                   12420476
##  3 Benin                     8078314
##  4 Botswana                  1639131
##  5 Burkina Faso             14326203
##  6 Burundi                   8390505
##  7 Cameroon                 17696293
##  8 Central African Republic  4369038
##  9 Chad                     10238807
## 10 Comoros                    710960
## # ... with 42 more rows

population_europe

## # A tibble: 30 x 2
##    country                     pop
##    <fct>                     <int>
##  1 Albania                 3600523
##  2 Austria                 8199783
##  3 Belgium                10392226
##  4 Bosnia and Herzegovina  4552198
##  5 Bulgaria                7322858
##  6 Croatia                 4493312
##  7 Czech Republic         10228744
##  8 Denmark                 5468120
##  9 Finland                 5238460
## 10 France                 61083916
## # ... with 20 more rows
…
right_join

full_join

Why four? Well, if we want to join two datasets, it typically happens that they don’t contain information on exactly the same observations. Have a closer look at the population and life expectancy data. The first one contains information on 114 countries and the second one contains information on 85 countries. So they can impossibly contain information on the same set of countries. The different joins will tackles this problem differently.

10.2.2 Inner join

Inner join means: I only keep information about keys that occur in both tables. So, if I don’t have the population of country A, I don’t want its life expectancy.

inner_join(countries_population, countries_lifeExp)

## Joining, by = "country"

## # A tibble: 73 x 3
##    country             pop lifeExp
##    <fct>             <int>   <dbl>
##  1 Botswana        1639131    50.7
##  2 South Africa   43997828    49.3
##  3 Ethiopia       76511887    52.9
##  4 Zimbabwe       12311143    43.5
##  5 Yemen, Rep.    22211743    62.7
##  6 Netherlands    16570613    79.8
##  7 United States 301139947    78.2
##  8 Kuwait          2505559    77.6
##  9 Colombia       44227550    72.9
## 10 Austria         8199783    79.8
## # ... with 63 more rows

This join gives us 73 observations, which is the subset of countries on which we have both types of information. Also note how the inner_join tells you which key it used.

10.2.3 Left join

Left join means: I keep all information in my first (left) table. So, even if I don’t have the life expectancy, still give me the population. The missing part of the new observation (i.e. the life expectancy), is now NA.

left_join(countries_population, countries_lifeExp)

## Joining, by = "country"

## # A tibble: 114 x 3
##    country             pop lifeExp
##    <fct>             <int>   <dbl>
##  1 Botswana        1639131    50.7
##  2 Greece         10706290    NA  
##  3 South Africa   43997828    49.3
##  4 Ethiopia       76511887    52.9
##  5 Zimbabwe       12311143    43.5
##  6 Yemen, Rep.    22211743    62.7
##  7 Nepal          28901790    NA  
##  8 Netherlands    16570613    79.8
##  9 United States 301139947    78.2
## 10 New Zealand     4115771    NA  
## # ... with 104 more rows
…
10.2.4 Right join

Right join means: the opposite of left join. I keep all information in my second (right) table.

right_join(countries_population, countries_lifeExp)

## Joining, by = "country"

## # A tibble: 85 x 3
##    country                pop lifeExp
##    <fct>                <int>   <dbl>
##  1 United States    301139947    78.2
##  2 Argentina               NA    75.3
##  3 Korea, Dem. Rep.  23301725    67.3
##  4 Bulgaria           7322858    73.0
##  5 Chile             16284741    78.6
##  6 Croatia            4493312    75.7
##  7 Canada            33390141    80.7
##  8 Honduras                NA    70.2
##  9 Liberia                 NA    45.7
## 10 Mexico           108700891    76.2
## # ... with 75 more rows

This join gives us 85 observations, which is the number of countries for which we have information on the life expectancy.

10.2.5 Full join

Full join means: I want to keep all information I have. So also populations for countries without life expectancy and vice versa remain in the dataset. All missing information is filled in as NA.

full_join(countries_population, countries_lifeExp)

## Joining, by = "country"

## # A tibble: 126 x 3
##    country             pop lifeExp
##    <fct>             <int>   <dbl>
##  1 Botswana        1639131    50.7
##  2 Greece         10706290    NA  
##  3 South Africa   43997828    49.3
##  4 Ethiopia       76511887    52.9
##  5 Zimbabwe       12311143    43.5
##  6 Yemen, Rep.    22211743    62.7
##  7 Nepal          28901790    NA  
##  8 Netherlands    16570613    79.8
##  9 United States 301139947    78.2
## 10 New Zealand     4115771    NA  
## # ... with 116 more rows
…
## Observations: 16
## Variables: 2
## $ carrier <chr> "9E", "AA", "AS", "B6", "DL", "EV", "F9", "FL", "HA", "MQ",...
## $ name    <chr> "Endeavor Air Inc.", "American Airlines Inc.", "Alaska Airl...

You can see they have the carrier variable in common, which contains a code for each airline. We can add the name of the airline to the flights

flights %>%
    inner_join(airlines)

## Joining, by = "carrier"

## # A tibble: 336,776 x 20
##     year month   day dep_time sched_dep_time dep_delay arr_time sched_arr_time
##    <int> <int> <int>    <int>          <int>     <dbl>    <int>          <int>
##  1  2013     1     1      517            515         2      830            819
##  2  2013     1     1      533            529         4      850            830
##  3  2013     1     1      542            540         2      923            850
##  4  2013     1     1      544            545        -1     1004           1022
##  5  2013     1     1      554            600        -6      812            837
##  6  2013     1     1      554            558        -4      740            728
##  7  2013     1     1      555            600        -5      913            854
##  8  2013     1     1      557            600        -3      709            723
##  9  2013     1     1      557            600        -3      838            846
## 10  2013     1     1      558            600        -2      753            745
## # ... with 336,766 more rows, and 12 more variables: arr_delay <dbl>,
## #   carrier <chr>, flight <int>, tailnum <chr>, origin <chr>, dest <chr>,
## #   air_time <dbl>, distance <dbl>, hour <dbl>, minute <dbl>, time_hour <dttm>,
## #   name <chr>
…
Note that the second join used variables year, month, origin, hour and time_hour to join the weather of the correct place and time to each flight.

10.2.8 Binding data

The data we joined above were always different pieces of information which we somehow linked (same country, same, time, same place, same airline, etc.) Sometimes we have dataset on separate objects which are not linked, but contain the same information. Recall the datasets on African and European countries.

population_africa

## # A tibble: 52 x 2
##    country                       pop
##    <fct>                       <int>
##  1 Algeria                  33333216
##  2 Angola                   12420476
##  3 Benin                     8078314
##  4 Botswana                  1639131
##  5 Burkina Faso             14326203
##  6 Burundi                   8390505
##  7 Cameroon                 17696293
##  8 Central African Republic  4369038
##  9 Chad                     10238807
## 10 Comoros                    710960
## # ... with 42 more rows

population_europe

## # A tibble: 30 x 2
##    country                     pop
##    <fct>                     <int>
##  1 Albania                 3600523
##  2 Austria                 8199783
##  3 Belgium                10392226
##  4 Bosnia and Herzegovina  4552198
##  5 Bulgaria                7322858
##  6 Croatia                 4493312
##  7 Czech Republic         10228744
##  8 Denmark                 5468120
##  9 Finland                 5238460
## 10 France                 61083916
## # ... with 20 more rows

These observation are not linked (there is no link between an African country and a European one), but they contain the same pieces of information (i.e. population).

We can bind these rows together.

bind_rows(population_africa, population_europe)

## # A tibble: 82 x 2
##    country                       pop
##    <fct>                       <int>
##  1 Algeria                  33333216
##  2 Angola                   12420476
##  3 Benin                     8078314
##  4 Botswana                  1639131
##  5 Burkina Faso             14326203
##  6 Burundi                   8390505
##  7 Cameroon                 17696293
##  8 Central African Republic  4369038
##  9 Chad                     10238807
## 10 Comoros                    710960
## # ... with 72 more rows

Note that we had 52 African countries and 30 European countries. Together, this makes for 82 countries.

For bind rows, it is not necesarry to have exactly the same information. Suppose that we have life expectancy for African countries, but not for European. Consider the dataset information_africa.

information_africa 

## # A tibble: 52 x 3
##    country                       pop lifeExp
##    <fct>                       <int>   <dbl>
##  1 Algeria                  33333216    72.3
##  2 Angola                   12420476    42.7
##  3 Benin                     8078314    56.7
##  4 Botswana                  1639131    50.7
##  5 Burkina Faso             14326203    52.3
##  6 Burundi                   8390505    49.6
##  7 Cameroon                 17696293    50.4
##  8 Central African Republic  4369038    44.7
##  9 Chad                     10238807    50.7
## 10 Comoros                    710960    65.2
## # ... with 42 more rows
…
If at this moment you hear it thundering in Keulen, it might be time for you to revise earlier tutorials. Because we have actually already seen spread before (Did we?) (Yes we did.)

The following example might refresh things a bit.

library(ggplot2)
diamonds %>%
    count(color, clarity)

## # A tibble: 56 x 3
##    color clarity     n
##    <ord> <ord>   <int>
##  1 D     I1         42
##  2 D     SI2      1370
##  3 D     SI1      2083
##  4 D     VS2      1697
##  5 D     VS1       705
##  6 D     VVS2      553
##  7 D     VVS1      252
##  8 D     IF         73
##  9 E     I1        102
## 10 E     SI2      1713
## # ... with 46 more rows
…
Let’s look at an example.

The dataset below shows the population for every country on earth after each 5 year interval, starting in 1952, ending in 2007.

yearly_population

## # A tibble: 142 x 14
##    country continent `1952` `1957` `1962` `1967` `1972` `1977` `1982` `1987`
##    <fct>   <fct>      <int>  <int>  <int>  <int>  <int>  <int>  <int>  <int>
##  1 Afghan~ Asia      8.43e6 9.24e6 1.03e7 1.15e7 1.31e7 1.49e7 1.29e7 1.39e7
##  2 Albania Europe    1.28e6 1.48e6 1.73e6 1.98e6 2.26e6 2.51e6 2.78e6 3.08e6
##  3 Algeria Africa    9.28e6 1.03e7 1.10e7 1.28e7 1.48e7 1.72e7 2.00e7 2.33e7
##  4 Angola  Africa    4.23e6 4.56e6 4.83e6 5.25e6 5.89e6 6.16e6 7.02e6 7.87e6
##  5 Argent~ Americas  1.79e7 1.96e7 2.13e7 2.29e7 2.48e7 2.70e7 2.93e7 3.16e7
##  6 Austra~ Oceania   8.69e6 9.71e6 1.08e7 1.19e7 1.32e7 1.41e7 1.52e7 1.63e7
##  7 Austria Europe    6.93e6 6.97e6 7.13e6 7.38e6 7.54e6 7.57e6 7.57e6 7.58e6
##  8 Bahrain Asia      1.20e5 1.39e5 1.72e5 2.02e5 2.31e5 2.97e5 3.78e5 4.55e5
##  9 Bangla~ Asia      4.69e7 5.14e7 5.68e7 6.28e7 7.08e7 8.04e7 9.31e7 1.04e8
## 10 Belgium Europe    8.73e6 8.99e6 9.22e6 9.56e6 9.71e6 9.82e6 9.86e6 9.87e6
## # ... with 132 more rows, and 4 more variables: `1992` <int>, `1997` <int>,
## #   `2002` <int>, `2007` <int>
…
Let’s gather the data into those to variables.

The key argument is the new variable in which we want old variable names to go. In our case, we want all the years as a time variable, so we can use them, instead of being scatterd over 12 variables.

The value argument is the new variable in which the values of the old variables go. Thus, these would be the population numbers.

After that, we specify all the columns we want to gather. In our case all years. So, we can just say that we don’t want to gather country and continent instead.50

Let’s see what happens.

yearly_population %>%
    gather(key = time, value = population, -country, -continent)

## # A tibble: 1,704 x 4
##    country     continent time  population
##    <fct>       <fct>     <chr>      <int>
##  1 Afghanistan Asia      1952     8425333
##  2 Albania     Europe    1952     1282697
##  3 Algeria     Africa    1952     9279525
##  4 Angola      Africa    1952     4232095
##  5 Argentina   Americas  1952    17876956
##  6 Australia   Oceania   1952     8691212
##  7 Austria     Europe    1952     6927772
##  8 Bahrain     Asia      1952      120447
##  9 Bangladesh  Asia      1952    46886859
## 10 Belgium     Europe    1952     8730405
## # ... with 1,694 more rows
…
To be honest: quite a mess. We don’t really need 60 variables for the data we just described, do we? What’s going on?

It seems that for each country and each year, the data contains one row. Let’s verify.

who %>%
    count(country, year)

## # A tibble: 7,240 x 3
##    country      year     n
##    <chr>       <int> <int>
##  1 Afghanistan  1980     1
##  2 Afghanistan  1981     1
##  3 Afghanistan  1982     1
##  4 Afghanistan  1983     1
##  5 Afghanistan  1984     1
##  6 Afghanistan  1985     1
##  7 Afghanistan  1986     1
##  8 Afghanistan  1987     1
##  9 Afghanistan  1988     1
## 10 Afghanistan  1989     1
## # ... with 7,230 more rows
…
diagnosis

gender

age

cases (the number of TB cases)

First of all, let’s go to a dataset in a long format, by gathering all the different types of diagnosis and cases into a long list. We will not gather the first 4 columns. The old columns will be a variable “type”, and the numbers will be called “cases”.

who %>%
    gather(key = type, value = cases, -country:-year)

## # A tibble: 405,440 x 6
##    country     iso2  iso3   year type        cases
##    <chr>       <chr> <chr> <int> <chr>       <int>
##  1 Afghanistan AF    AFG    1980 new_sp_m014    NA
##  2 Afghanistan AF    AFG    1981 new_sp_m014    NA
##  3 Afghanistan AF    AFG    1982 new_sp_m014    NA
##  4 Afghanistan AF    AFG    1983 new_sp_m014    NA
##  5 Afghanistan AF    AFG    1984 new_sp_m014    NA
##  6 Afghanistan AF    AFG    1985 new_sp_m014    NA
##  7 Afghanistan AF    AFG    1986 new_sp_m014    NA
##  8 Afghanistan AF    AFG    1987 new_sp_m014    NA
##  9 Afghanistan AF    AFG    1988 new_sp_m014    NA
## 10 Afghanistan AF    AFG    1989 new_sp_m014    NA
## # ... with 405,430 more rows

See what happened? Take a good look.

Had you figured out that we first needed to gather the data? If yes, congratulations, you start to get what data transformation is and which transformations you need where. If no, don’t worry. Remember that I told you this is a hard skill. Furthermore, there are probably different ways to do this.

We can get rid of iso2 and iso3. Note that they might be useful for joining the data with other data about countries, but we have no plans to do so. Just, let’s get them out of our way.

who %>%
    gather(key = type, value = cases, -country:-year) %>%
    select(-iso2, -iso3)

## # A tibble: 405,440 x 4
##    country      year type        cases
##    <chr>       <int> <chr>       <int>
##  1 Afghanistan  1980 new_sp_m014    NA
##  2 Afghanistan  1981 new_sp_m014    NA
##  3 Afghanistan  1982 new_sp_m014    NA
##  4 Afghanistan  1983 new_sp_m014    NA
##  5 Afghanistan  1984 new_sp_m014    NA
##  6 Afghanistan  1985 new_sp_m014    NA
##  7 Afghanistan  1986 new_sp_m014    NA
##  8 Afghanistan  1987 new_sp_m014    NA
##  9 Afghanistan  1988 new_sp_m014    NA
## 10 Afghanistan  1989 new_sp_m014    NA
## # ... with 405,430 more rows
…
That’s better, isn’t it? By the way, do you see how we at each point build on what we did before? This way we can easily change mistakes if we make some. Only when our data is correctly transformed, we save it, and put the code in our loadscript.

But now, we can separate the data. The first part will become the is_new variable, the second part the diagnosis variable, and the last part… well, it contaisn both the gender (f/m) and the age category. Let’s just call it age_gender, and tackle that problem later.

who %>%
    gather(key = type, value = cases, -country:-year) %>%
    select(-iso2, -iso3) %>%
    mutate(type = str_replace(type, "newrel", "new_rel")) %>%
    separate(type, into = c("is_new", "diagnosis", "gender_age")) 

## # A tibble: 405,440 x 6
##    country      year is_new diagnosis gender_age cases
##    <chr>       <int> <chr>  <chr>     <chr>      <int>
##  1 Afghanistan  1980 new    sp        m014          NA
##  2 Afghanistan  1981 new    sp        m014          NA
##  3 Afghanistan  1982 new    sp        m014          NA
##  4 Afghanistan  1983 new    sp        m014          NA
##  5 Afghanistan  1984 new    sp        m014          NA
##  6 Afghanistan  1985 new    sp        m014          NA
##  7 Afghanistan  1986 new    sp        m014          NA
##  8 Afghanistan  1987 new    sp        m014          NA
##  9 Afghanistan  1988 new    sp        m014          NA
## 10 Afghanistan  1989 new    sp        m014          NA
## # ... with 405,430 more rows
…
