Univariate and bivariate descriptive analysis
…
Clearly, there are some differences among these categories. Lets try to put these into numbers. What we effectively want to do is calculate the centrality and spread for each of these categories, i.e.for each group of cars. We therefore introduce a new dplyr-function called group_by. The first argument of this function is needed for the data, all other arguments (which should normally be categorical) will be used the group the data.

group_by(mpg, drv)

## # A tibble: 234 x 11
## # Groups:   drv [3]
##    manufacturer model displ  year cyl   trans drv     cty   hwy fl    class
##    <fct>        <fct> <dbl> <int> <ord> <fct> <fct> <int> <int> <fct> <fct>
##  1 audi         a4      1.8  1999 4     auto~ f        18    29 p     comp~
##  2 audi         a4      1.8  1999 4     manu~ f        21    29 p     comp~
##  3 audi         a4      2    2008 4     manu~ f        20    31 p     comp~
##  4 audi         a4      2    2008 4     auto~ f        21    30 p     comp~
##  5 audi         a4      2.8  1999 6     auto~ f        16    26 p     comp~
##  6 audi         a4      2.8  1999 6     manu~ f        18    26 p     comp~
##  7 audi         a4      3.1  2008 6     auto~ f        18    27 p     comp~
##  8 audi         a4 q~   1.8  1999 4     manu~ 4        18    26 p     comp~
##  9 audi         a4 q~   1.8  1999 4     auto~ 4        16    25 p     comp~
## 10 audi         a4 q~   2    2008 4     manu~ 4        20    28 p     comp~
## # ... with 224 more rows

The output of this line just returns us a tibble, with no remarkable modifications. But dont be fooled, because there are! On the second line printed we read Groups: drv [3]. Thus, this tibble is grouped on the variable drv, and there are three different groups. Just for the sake of example, let us also add trans as a group.

group_by(mpg, drv, trans)

## # A tibble: 234 x 11
## # Groups:   drv, trans [24]
##    manufacturer model displ  year cyl   trans drv     cty   hwy fl    class
##    <fct>        <fct> <dbl> <int> <ord> <fct> <fct> <int> <int> <fct> <fct>
##  1 audi         a4      1.8  1999 4     auto~ f        18    29 p     comp~
##  2 audi         a4      1.8  1999 4     manu~ f        21    29 p     comp~
##  3 audi         a4      2    2008 4     manu~ f        20    31 p     comp~
##  4 audi         a4      2    2008 4     auto~ f        21    30 p     comp~
##  5 audi         a4      2.8  1999 6     auto~ f        16    26 p     comp~
##  6 audi         a4      2.8  1999 6     manu~ f        18    26 p     comp~
##  7 audi         a4      3.1  2008 6     auto~ f        18    27 p     comp~
##  8 audi         a4 q~   1.8  1999 4     manu~ 4        18    26 p     comp~
##  9 audi         a4 q~   1.8  1999 4     auto~ 4        16    25 p     comp~
## 10 audi         a4 q~   2    2008 4     manu~ 4        20    28 p     comp~
## # ... with 224 more rows
…
