Chapter 9 [Lecture notes] Tidy data | Exploratieve en Descriptieve Data Analyse
…
Stel nu dat je het effect wenst te weten van de weekdag van vertrek op de vertraging van een vlucht, maar je wil hierbij onderscheid maken tussen vertrek- en aankomstvertraging.

Volgens bovenstaande aanpak zou je dan een Y-variabele moeten hebben die de vertraging meet en een Z-variabele die het type van vertraging aangeeft (aankomst of vertrek).

Onze dataset is echter anders opgebouwd. In de beschikbare data is de vertraging van een vlucht opgeslagen met behulp van twee aparte variabelen, namelijk vertrek- en aankomstvertraging. Dit blijkt uit onderstaande tabel.

## # A tibble: 319,809 x 5
##       id vertrekluchthaven   vertrek_vertraging aankomst_vertra~ weekdag_vertrek
##    <int> <chr>                            <dbl>            <dbl> <ord>          
##  1     1 Newark Liberty Intl                  2               11 di             
##  2     2 La Guardia                           4               20 di             
##  3     3 John F Kennedy Intl                  2               33 di             
##  4     4 La Guardia                          -6              -25 di             
##  5     5 Newark Liberty Intl                 -4               12 di             
##  6     6 Newark Liberty Intl                 -5               19 di             
##  7     7 La Guardia                          -3              -14 di             
##  8     8 John F Kennedy Intl                 -3               -8 di             
##  9     9 La Guardia                          -2                8 di             
## 10    10 John F Kennedy Intl                 -2               -2 di             
## # ... with 319,799 more rows
…
Hiervoor kunnen we de gather() functie hanteren. Deze functie zal een set van variabelen (in dit geval ‘vertrek_vertraging’ en ‘aankomst_vertraging’) transformeren naar 2 variabelen, namelijk een key-variabele en een value-variabele.

De key-variabele is een categorische variabele en de categorieën komen overeen met de variabelenamen in onze set van variabelen die we wensen te transformeren. In ons geval zijn dit dus de categorieën ‘vertrek_vertraging’ en ‘aankomst_vertraging.’

De value-variabele bevat de bijhorende waarde uit de oorspronkelijke dataset.

De gather() functie bestaat uit 3 delen.

Eerst vermeld je alle variabelen die je wenst te vervangen.

Vervolgens geef je de naam van de nieuwe key-variabele.

Tenslotte geef je de naam van de nieuwe value-variabele.

## # A tibble: 639,618 x 5
##       id vertrekluchthaven   weekdag_vertrek type_vertraging     vertraging
##    <int> <chr>               <ord>           <chr>                    <dbl>
##  1     1 Newark Liberty Intl di              vertrek_vertraging           2
##  2     1 Newark Liberty Intl di              aankomst_vertraging         11
##  3     2 La Guardia          di              vertrek_vertraging           4
##  4     2 La Guardia          di              aankomst_vertraging         20
##  5     3 John F Kennedy Intl di              vertrek_vertraging           2
##  6     3 John F Kennedy Intl di              aankomst_vertraging         33
##  7     4 La Guardia          di              vertrek_vertraging          -6
##  8     4 La Guardia          di              aankomst_vertraging        -25
##  9     5 Newark Liberty Intl di              vertrek_vertraging          -4
## 10     5 Newark Liberty Intl di              aankomst_vertraging         12
## # ... with 639,608 more rows
…
Indien we de relatie tussen we weekdag en de gemiddelde vertraging, uitgesplitst volgens vertragingtype, wensen te visualiseren, moeten we eerst de gemiddelde vertraging berekenen.

## # A tibble: 42 x 4
## # Groups:   vertrekluchthaven, type_vertraging [6]
##    vertrekluchthaven   type_vertraging     weekdag_vertrek gem_vertraging
##    <chr>               <chr>               <ord>                    <dbl>
##  1 John F Kennedy Intl aankomst_vertraging zo                        6.39
##  2 John F Kennedy Intl aankomst_vertraging ma                        7.99
##  3 John F Kennedy Intl aankomst_vertraging di                        3.34
##  4 John F Kennedy Intl aankomst_vertraging wo                        5.86
##  5 John F Kennedy Intl aankomst_vertraging do                        7.56
##  6 John F Kennedy Intl aankomst_vertraging vr                        6.49
##  7 John F Kennedy Intl aankomst_vertraging za                        1.96
##  8 John F Kennedy Intl vertrek_vertraging  zo                       11.7 
##  9 John F Kennedy Intl vertrek_vertraging  ma                       14.7 
## 10 John F Kennedy Intl vertrek_vertraging  di                       10.5 
## # ... with 32 more rows
…
