Chapter 8 [Tutorial] Data voorbereiden | Exploratieve en Descriptieve Data Analyse
…
survey %>%
  duplicated() %>%
  summary()

##    Mode   FALSE    TRUE 
## logical   21220     263

Het lijkt erop dat er 263 in onze gegevens zitten die niet uniek zijn. We kunnen deze bekijken door de uitvoer van duplicated te gebruiken als invoer van filter.

survey %>%
  filter(duplicated(.))

## # A tibble: 263 x 9
##     year marital         age race  reported_income party   religion denomination
##    <int> <fct>         <int> <fct> <fct>           <fct>   <fct>    <fct>       
##  1  2000 Married          48 White $25000 or more  Ind,ne~ Catholic Not applica~
##  2  2000 Never married    39 Other $25000 or more  Not st~ Catholic Not applica~
##  3  2000 Married          36 Other $25000 or more  Not st~ Catholic Not applica~
##  4  2000 Never married    30 White $25000 or more  Not st~ Catholic Not applica~
##  5  2000 Never married    19 White $1000 to 2999   Not st~ Catholic Not applica~
##  6  2000 Married          47 White $25000 or more  Not st~ Catholic Not applica~
##  7  2000 Married          29 White $25000 or more  Indepe~ Catholic Not applica~
##  8  2000 Married          39 White $10000 - 14999  Not st~ Catholic Not applica~
##  9  2000 Widowed          80 White Not applicable  Strong~ Protest~ Southern ba~
## 10  2002 Married          43 White Not applicable  Indepe~ Catholic Not applica~
## # ... with 253 more rows, and 1 more variable: tv_hours <dbl>

Zie je de . in de duplicated functie? De punt heeft een speciale betekenis als hij samen met het piping-symbool wordt gebruikt. Intern zal het vervangen worden door de invoer die door het piping symbool komt. Als zodanig is survey %>% filter(duplicated(.)) gelijk aan filter(survey, duplicated(survey)). Dit is erg handig als je meerdere keren naar de piping-invoer moet verwijzen, niet alleen als eerste argument van de functie.

Op dit moment hebben we de dubbele rijen geselecteerd en kunnen we ze bekijken. Als we alleen de unieke rijen willen behouden, kunnen we een !-symbool toevoegen om de selectie te negeren.

survey %>%
  filter(!duplicated(.))

## # A tibble: 21,220 x 9
##     year marital         age race  reported_income party   religion denomination
##    <int> <fct>         <int> <fct> <fct>           <fct>   <fct>    <fct>       
##  1  2000 Never married    26 White $8000 to 9999   Ind,ne~ Protest~ Southern ba~
##  2  2000 Divorced         48 White $8000 to 9999   Not st~ Protest~ Baptist-dk ~
##  3  2000 Widowed          67 White Not applicable  Indepe~ Protest~ No denomina~
##  4  2000 Never married    39 White Not applicable  Ind,ne~ Orthodo~ Not applica~
##  5  2000 Divorced         25 White Not applicable  Not st~ None     Not applica~
##  6  2000 Married          25 White $20000 - 24999  Strong~ Protest~ Southern ba~
##  7  2000 Never married    36 White $25000 or more  Not st~ Christi~ Not applica~
##  8  2000 Divorced         44 White $7000 to 7999   Ind,ne~ Protest~ Lutheran-mo~
##  9  2000 Married          44 White $25000 or more  Not st~ Protest~ Other       
## 10  2000 Married          47 White $25000 or more  Strong~ Protest~ Southern ba~
## # ... with 21,210 more rows, and 1 more variable: tv_hours <dbl>

Dit is echter een beetje omslachtig. Daarom bevat dplyr een heel handige short cut: de distinct functie.

survey %>%
  distinct()

## # A tibble: 21,220 x 9
##     year marital         age race  reported_income party   religion denomination
##    <int> <fct>         <int> <fct> <fct>           <fct>   <fct>    <fct>       
##  1  2000 Never married    26 White $8000 to 9999   Ind,ne~ Protest~ Southern ba~
##  2  2000 Divorced         48 White $8000 to 9999   Not st~ Protest~ Baptist-dk ~
##  3  2000 Widowed          67 White Not applicable  Indepe~ Protest~ No denomina~
##  4  2000 Never married    39 White Not applicable  Ind,ne~ Orthodo~ Not applica~
##  5  2000 Divorced         25 White Not applicable  Not st~ None     Not applica~
##  6  2000 Married          25 White $20000 - 24999  Strong~ Protest~ Southern ba~
##  7  2000 Never married    36 White $25000 or more  Not st~ Christi~ Not applica~
##  8  2000 Divorced         44 White $7000 to 7999   Ind,ne~ Protest~ Lutheran-mo~
##  9  2000 Married          44 White $25000 or more  Not st~ Protest~ Other       
## 10  2000 Married          47 White $25000 or more  Strong~ Protest~ Southern ba~
## # ... with 21,210 more rows, and 1 more variable: tv_hours <dbl>
…
