Chapter 5 [Tutorial] Descriptieve statistieken | Exploratieve en Descriptieve Data Analyse
…
Het is duidelijk dat er een aantal verschillen zijn tussen deze categorieën. Laten we proberen deze in cijfers uit te drukken. Wat we in feite willen doen is de centrum- en spreidingsmaten berekenen voor elk van deze categorieën, d.w.z. voor elke groep van auto’s. Daarom introduceren we een nieuwe dplyr-functie, genaamd group_by. Het eerste argument van deze functie is nodig voor de gegevens, alle andere argumenten (die normaal altijd categorisch zijn) zullen worden gebruikt om de gegevens te groeperen.

group_by(mpg, drv)

## # A tibble: 234 x 11
## # Groups:   drv [3]
##    manufacturer model    displ  year cyl   trans   drv     cty   hwy fl    class
##    <fct>        <fct>    <dbl> <int> <ord> <fct>   <fct> <int> <int> <fct> <fct>
##  1 audi         a4         1.8  1999 4     auto(l~ f        18    29 p     comp~
##  2 audi         a4         1.8  1999 4     manual~ f        21    29 p     comp~
##  3 audi         a4         2    2008 4     manual~ f        20    31 p     comp~
##  4 audi         a4         2    2008 4     auto(a~ f        21    30 p     comp~
##  5 audi         a4         2.8  1999 6     auto(l~ f        16    26 p     comp~
##  6 audi         a4         2.8  1999 6     manual~ f        18    26 p     comp~
##  7 audi         a4         3.1  2008 6     auto(a~ f        18    27 p     comp~
##  8 audi         a4 quat~   1.8  1999 4     manual~ 4        18    26 p     comp~
##  9 audi         a4 quat~   1.8  1999 4     auto(l~ 4        16    25 p     comp~
## 10 audi         a4 quat~   2    2008 4     manual~ 4        20    28 p     comp~
## # ... with 224 more rows

De uitvoer van deze regel geeft ons gewoon een tibble, zonder opmerkelijke wijzigingen. Maar laat je niet misleiden, want die zijn er wel! Op de tweede geprinte regel lezen we “Groups: drv [3]”. Deze tibble is dus gegroepeerd op de variabele drv, en er zijn drie verschillende groepen. Laten we, om een voorbeeld te geven, ook trans als groep toevoegen.

De variabelen die je gebruikt om een dataset te groeperen zijn meestal - al zijn er uitzonderingen - categorisch. Vaak heeft het geen zin om continue variabelen te gebruiken als groep. Bijvoorbeeld, stel dat je personen groepeert op lengte, in meter. Afhankelijk van het aantal personen in je dataset, ga je maar weinig observaties per groep hebben, aangezien het gaat om een continue variabele, die heel veel waarden kan hebben. Zoals altijd zijn er uitzonderingen, zoals bv jaartallen. Het gaat dan steeds over continue variabelen waarvan het aantal verschillende waarden enigszins beperkt is - wat vaak neer komt op gehele getallen en een beperkte domein van mogelijke waarden.

group_by(mpg, drv, trans)

## # A tibble: 234 x 11
## # Groups:   drv, trans [24]
##    manufacturer model    displ  year cyl   trans   drv     cty   hwy fl    class
##    <fct>        <fct>    <dbl> <int> <ord> <fct>   <fct> <int> <int> <fct> <fct>
##  1 audi         a4         1.8  1999 4     auto(l~ f        18    29 p     comp~
##  2 audi         a4         1.8  1999 4     manual~ f        21    29 p     comp~
##  3 audi         a4         2    2008 4     manual~ f        20    31 p     comp~
##  4 audi         a4         2    2008 4     auto(a~ f        21    30 p     comp~
##  5 audi         a4         2.8  1999 6     auto(l~ f        16    26 p     comp~
##  6 audi         a4         2.8  1999 6     manual~ f        18    26 p     comp~
##  7 audi         a4         3.1  2008 6     auto(a~ f        18    27 p     comp~
##  8 audi         a4 quat~   1.8  1999 4     manual~ 4        18    26 p     comp~
##  9 audi         a4 quat~   1.8  1999 4     auto(l~ 4        16    25 p     comp~
## 10 audi         a4 quat~   2    2008 4     manual~ 4        20    28 p     comp~
## # ... with 224 more rows
…
