Chapter 10 [Tutorial] Tidy data | Exploratieve en Descriptieve Data Analyse
…
Disclaimer

Er worden veel datasets gebruikt in deze handleiding. Een loadscript is voorzien om alle datasets voor je aan te maken. Voer het script uit en je kan aan de slag/

Laten we beginnen!

10.2 Data samenvoegen

We kunnen verschillende datasets samenvoegen door joining of binding.

We joinen verschillende datasets die verschillende informatie bevatten over dezelfde waarnemingen. Zo kunnen we bijvoorbeeld 1) een dataset hebben van landen met hun bevolking en 2) een dataset van landen met hun levensverwachting. Deze kunnen we joinen.

countries_population

## # A tibble: 114 x 2
##    country             pop
##    <fct>             <int>
##  1 Botswana        1639131
##  2 Greece         10706290
##  3 South Africa   43997828
##  4 Ethiopia       76511887
##  5 Zimbabwe       12311143
##  6 Yemen, Rep.    22211743
##  7 Nepal          28901790
##  8 Netherlands    16570613
##  9 United States 301139947
## 10 New Zealand     4115771
## # ... with 104 more rows

countries_lifeExp

## # A tibble: 85 x 2
##    country          lifeExp
##    <fct>              <dbl>
##  1 United States       78.2
##  2 Argentina           75.3
##  3 Korea, Dem. Rep.    67.3
##  4 Bulgaria            73.0
##  5 Chile               78.6
##  6 Croatia             75.7
##  7 Canada              80.7
##  8 Honduras            70.2
##  9 Liberia             45.7
## 10 Mexico              76.2
## # ... with 75 more rows

We binden verschillende datasets die dezelfde informatie bevatten op verschillende waarnemingen. Zo kunnen wij bijvoorbeeld beschikken over 1) een dataset van Europese landen met hun bevolking en 2) een dataset van Afrikaanse landen met hun bevolking. We kunnen deze twee aan elkaar binden.40

population_africa

## # A tibble: 52 x 2
##    country                       pop
##    <fct>                       <int>
##  1 Algeria                  33333216
##  2 Angola                   12420476
##  3 Benin                     8078314
##  4 Botswana                  1639131
##  5 Burkina Faso             14326203
##  6 Burundi                   8390505
##  7 Cameroon                 17696293
##  8 Central African Republic  4369038
##  9 Chad                     10238807
## 10 Comoros                    710960
## # ... with 42 more rows

population_europe

## # A tibble: 30 x 2
##    country                     pop
##    <fct>                     <int>
##  1 Albania                 3600523
##  2 Austria                 8199783
##  3 Belgium                10392226
##  4 Bosnia and Herzegovina  4552198
##  5 Bulgaria                7322858
##  6 Croatia                 4493312
##  7 Czech Republic         10228744
##  8 Denmark                 5468120
##  9 Finland                 5238460
## 10 France                 61083916
## # ... with 20 more rows
…
left_join

right_join

full_join

Waarom vier? Wel, als we twee datasets willen samenvoegen, gebeurt het meestal dat ze informatie bevatten over niet exact dezelfde waarnemingen. Kijk maar eens naar de gegevens over de bevolking en de levensverwachting. De eerste bevat informatie over 114 landen en de tweede bevat informatie over 85 landen. Ze kunnen dus onmogelijk informatie bevatten over dezelfde set van landen. De verschillende joins zullen dit probleem verschillend aanpakken.

10.2.2 Inner join

Inner join betekent: Ik bewaar alleen informatie over keys die in beide tabellen voorkomen. Dus, als ik de bevolking van land A niet heb, wil ik ook de levensverwachting niet hebben.

inner_join(countries_population, countries_lifeExp)

## # A tibble: 73 x 3
##    country             pop lifeExp
##    <fct>             <int>   <dbl>
##  1 Botswana        1639131    50.7
##  2 South Africa   43997828    49.3
##  3 Ethiopia       76511887    52.9
##  4 Zimbabwe       12311143    43.5
##  5 Yemen, Rep.    22211743    62.7
##  6 Netherlands    16570613    79.8
##  7 United States 301139947    78.2
##  8 Kuwait          2505559    77.6
##  9 Colombia       44227550    72.9
## 10 Austria         8199783    79.8
## # ... with 63 more rows

Deze join geeft ons 73 waarnemingen, dat is de deelverzameling van landen waarover we beide soorten informatie hebben. Merk ook op hoe de inner_join je vertelt welke key het heeft gebruikt.

10.2.3 Left join

Left join betekent: Ik bewaar alle informatie in mijn eerste (linker) tabel. Dus, zelfs als ik de levensverwachting niet heb, geef me nog steeds de bevolking. Het ontbrekende deel van de nieuwe waarneming (d.w.z. de levensverwachting), is nu NA.

left_join(countries_population, countries_lifeExp)

## # A tibble: 114 x 3
##    country             pop lifeExp
##    <fct>             <int>   <dbl>
##  1 Botswana        1639131    50.7
##  2 Greece         10706290    NA  
##  3 South Africa   43997828    49.3
##  4 Ethiopia       76511887    52.9
##  5 Zimbabwe       12311143    43.5
##  6 Yemen, Rep.    22211743    62.7
##  7 Nepal          28901790    NA  
##  8 Netherlands    16570613    79.8
##  9 United States 301139947    78.2
## 10 New Zealand     4115771    NA  
## # ... with 104 more rows
…
10.2.4 Right join

Right join betekent: het tegenovergestelde van left join. Ik bewaar alle informatie in mijn tweede (rechter) tabel.

right_join(countries_population, countries_lifeExp)

## # A tibble: 85 x 3
##    country             pop lifeExp
##    <fct>             <int>   <dbl>
##  1 Botswana        1639131    50.7
##  2 South Africa   43997828    49.3
##  3 Ethiopia       76511887    52.9
##  4 Zimbabwe       12311143    43.5
##  5 Yemen, Rep.    22211743    62.7
##  6 Netherlands    16570613    79.8
##  7 United States 301139947    78.2
##  8 Kuwait          2505559    77.6
##  9 Colombia       44227550    72.9
## 10 Austria         8199783    79.8
## # ... with 75 more rows

Deze join geeft ons 85 waarnemingen, dat is het aantal landen waarvoor we informatie hebben over de levensverwachting.

10.2.5 Full join

Full join betekent: Ik wil alle informatie behouden die ik heb. Dus ook populaties voor landen zonder levensverwachting en vice versa blijven in de dataset. Alle ontbrekende informatie wordt ingevuld als NA.

full_join(countries_population, countries_lifeExp)

## # A tibble: 126 x 3
##    country             pop lifeExp
##    <fct>             <int>   <dbl>
##  1 Botswana        1639131    50.7
##  2 Greece         10706290    NA  
##  3 South Africa   43997828    49.3
##  4 Ethiopia       76511887    52.9
##  5 Zimbabwe       12311143    43.5
##  6 Yemen, Rep.    22211743    62.7
##  7 Nepal          28901790    NA  
##  8 Netherlands    16570613    79.8
##  9 United States 301139947    78.2
## 10 New Zealand     4115771    NA  
## # ... with 116 more rows
…
airlines %>%
  glimpse()

## Rows: 16
## Columns: 2
## $ carrier <chr> "9E", "AA", "AS", "B6", "DL", "EV", "F9", "FL", "HA", "MQ", "O~
## $ name    <chr> "Endeavor Air Inc.", "American Airlines Inc.", "Alaska Airline~

Je kan zien dat ze de variabele “carrier” gemeen hebben, die voor elke luchtvaartmaatschappij een code bevat. We kunnen de naam van de luchtvaartmaatschappij dus toevoegen aan de vluchten

flights %>%
  inner_join(airlines)

## # A tibble: 336,776 x 20
##     year month   day dep_time sched_dep_time dep_delay arr_time sched_arr_time
##    <int> <int> <int>    <int>          <int>     <dbl>    <int>          <int>
##  1  2013     1     1      517            515         2      830            819
##  2  2013     1     1      533            529         4      850            830
##  3  2013     1     1      542            540         2      923            850
##  4  2013     1     1      544            545        -1     1004           1022
##  5  2013     1     1      554            600        -6      812            837
##  6  2013     1     1      554            558        -4      740            728
##  7  2013     1     1      555            600        -5      913            854
##  8  2013     1     1      557            600        -3      709            723
##  9  2013     1     1      557            600        -3      838            846
## 10  2013     1     1      558            600        -2      753            745
## # ... with 336,766 more rows, and 12 more variables: arr_delay <dbl>,
## #   carrier <chr>, flight <int>, tailnum <chr>, origin <chr>, dest <chr>,
## #   air_time <dbl>, distance <dbl>, hour <dbl>, minute <dbl>, time_hour <dttm>,
## #   name <chr>
…
Merk op dat de tweede join de variabelen jaar, maand, oorsprong, uur en time_hour gebruikte om het weer van de juiste plaats (vertrekplaats, meer specifiek) en tijd bij elke vlucht te voegen.

10.2.8 Binding data

De gegevens die we hierboven hebben samengevoegd waren steeds verschillende stukken informatie die we op de een of andere manier aan elkaar hebben gekoppeld (zelfde land, zelfde tijd, zelfde plaats, zelfde luchtvaartmaatschappij, enz.) Soms hebben we datasets over afzonderlijke objecten die niet aan elkaar gekoppeld zijn, maar wel dezelfde informatie bevatten. Denk aan de datasets over Afrikaanse en Europese landen.

population_africa

## # A tibble: 52 x 2
##    country                       pop
##    <fct>                       <int>
##  1 Algeria                  33333216
##  2 Angola                   12420476
##  3 Benin                     8078314
##  4 Botswana                  1639131
##  5 Burkina Faso             14326203
##  6 Burundi                   8390505
##  7 Cameroon                 17696293
##  8 Central African Republic  4369038
##  9 Chad                     10238807
## 10 Comoros                    710960
## # ... with 42 more rows

population_europe

## # A tibble: 30 x 2
##    country                     pop
##    <fct>                     <int>
##  1 Albania                 3600523
##  2 Austria                 8199783
##  3 Belgium                10392226
##  4 Bosnia and Herzegovina  4552198
##  5 Bulgaria                7322858
##  6 Croatia                 4493312
##  7 Czech Republic         10228744
##  8 Denmark                 5468120
##  9 Finland                 5238460
## 10 France                 61083916
## # ... with 20 more rows

Deze waarnemingen zijn niet aan elkaar gekoppeld (er is geen verband tussen een Afrikaans land en een Europees land), maar ze bevatten wel dezelfde gegevens (nl. bevolking).

We kunnen deze rijen aan elkaar binden.

bind_rows(population_africa, population_europe)

## # A tibble: 82 x 2
##    country                       pop
##    <fct>                       <int>
##  1 Algeria                  33333216
##  2 Angola                   12420476
##  3 Benin                     8078314
##  4 Botswana                  1639131
##  5 Burkina Faso             14326203
##  6 Burundi                   8390505
##  7 Cameroon                 17696293
##  8 Central African Republic  4369038
##  9 Chad                     10238807
## 10 Comoros                    710960
## # ... with 72 more rows

Merk op dat we 52 Afrikaanse landen hadden en 30 Europese landen. Samen maakt dit 82 landen.

Voor bind_row is het niet noodzakelijk om precies dezelfde informatie te hebben in beide datasets. Stel dat we de levensverwachting hebben voor Afrikaanse landen, maar niet voor Europese. Beschouw de dataset information_africa.

information_africa

## # A tibble: 52 x 3
##    country                       pop lifeExp
##    <fct>                       <int>   <dbl>
##  1 Algeria                  33333216    72.3
##  2 Angola                   12420476    42.7
##  3 Benin                     8078314    56.7
##  4 Botswana                  1639131    50.7
##  5 Burkina Faso             14326203    52.3
##  6 Burundi                   8390505    49.6
##  7 Cameroon                 17696293    50.4
##  8 Central African Republic  4369038    44.7
##  9 Chad                     10238807    50.7
## 10 Comoros                    710960    65.2
## # ... with 42 more rows
…
Als je het op dit moment hoort donderen in Keulen, dan wordt het misschien tijd om eerdere tutorials te herzien. Want spread hebben we eigenlijk al eerder gezien (Hebben we dat?) (Ja dat hebben we.)

Het volgende voorbeeld frist de boel misschien een beetje op.

library(ggplot2)
diamonds %>%
  count(color, clarity)

## # A tibble: 56 x 3
##    color clarity     n
##    <ord> <ord>   <int>
##  1 D     I1         42
##  2 D     SI2      1370
##  3 D     SI1      2083
##  4 D     VS2      1697
##  5 D     VS1       705
##  6 D     VVS2      553
##  7 D     VVS1      252
##  8 D     IF         73
##  9 E     I1        102
## 10 E     SI2      1713
## # ... with 46 more rows
…
Laten we eens kijken naar een voorbeeld.

De dataset hieronder toont de bevolking voor elk land op aarde na elk interval van 5 jaar, beginnend in 1952 en eindigend in 2007.

yearly_population

## # A tibble: 142 x 14
##    country     continent `1952` `1957` `1962` `1967` `1972` `1977` `1982` `1987`
##    <fct>       <fct>      <int>  <int>  <int>  <int>  <int>  <int>  <int>  <int>
##  1 Afghanistan Asia      8.43e6 9.24e6 1.03e7 1.15e7 1.31e7 1.49e7 1.29e7 1.39e7
##  2 Albania     Europe    1.28e6 1.48e6 1.73e6 1.98e6 2.26e6 2.51e6 2.78e6 3.08e6
##  3 Algeria     Africa    9.28e6 1.03e7 1.10e7 1.28e7 1.48e7 1.72e7 2.00e7 2.33e7
##  4 Angola      Africa    4.23e6 4.56e6 4.83e6 5.25e6 5.89e6 6.16e6 7.02e6 7.87e6
##  5 Argentina   Americas  1.79e7 1.96e7 2.13e7 2.29e7 2.48e7 2.70e7 2.93e7 3.16e7
##  6 Australia   Oceania   8.69e6 9.71e6 1.08e7 1.19e7 1.32e7 1.41e7 1.52e7 1.63e7
##  7 Austria     Europe    6.93e6 6.97e6 7.13e6 7.38e6 7.54e6 7.57e6 7.57e6 7.58e6
##  8 Bahrain     Asia      1.20e5 1.39e5 1.72e5 2.02e5 2.31e5 2.97e5 3.78e5 4.55e5
##  9 Bangladesh  Asia      4.69e7 5.14e7 5.68e7 6.28e7 7.08e7 8.04e7 9.31e7 1.04e8
## 10 Belgium     Europe    8.73e6 8.99e6 9.22e6 9.56e6 9.71e6 9.82e6 9.86e6 9.87e6
## # ... with 132 more rows, and 4 more variables: `1992` <int>, `1997` <int>,
## #   `2002` <int>, `2007` <int>
…
Laten we de gegevens verzamelen in die twee variabelen.

Het belangrijkste argument is de new variabele waarin we de oude variabelen willen hebben. In ons geval willen we alle jaren als een time variabele, zodat we ze kunnen gebruiken, in plaats van ze te verspreiden over 12 variabelen.

Het value-argument is de nieuwe variabele waarin de waarden van de oude variabelen terechtkomen. Dit zouden dus de bevolkingsaantallen zijn, oftewel population.

Daarna geven we alle kolommen op die we willen verzamelen. In ons geval alle jaren. Gelukkig kunnen we ons typwerk besparen, en gewoon zeggen dat we land en continent niet willen verzamelen.46

Laten we eens kijken wat er gebeurt.

yearly_population %>%
  gather(key = time, value = population, -country, -continent)

## # A tibble: 1,704 x 4
##    country     continent time  population
##    <fct>       <fct>     <chr>      <int>
##  1 Afghanistan Asia      1952     8425333
##  2 Albania     Europe    1952     1282697
##  3 Algeria     Africa    1952     9279525
##  4 Angola      Africa    1952     4232095
##  5 Argentina   Americas  1952    17876956
##  6 Australia   Oceania   1952     8691212
##  7 Austria     Europe    1952     6927772
##  8 Bahrain     Asia      1952      120447
##  9 Bangladesh  Asia      1952    46886859
## 10 Belgium     Europe    1952     8730405
## # ... with 1,694 more rows
…
Om eerlijk te zijn: nogal een puinhoop. We hebben toch niet echt 60 variabelen nodig voor de gegevens die we net beschreven? Wat is er aan de hand?

Het lijkt erop dat alle gegevens voor elk land en jaar op één rij staan. Laten we eens kijken.

who %>%
  count(country, year)

## # A tibble: 7,240 x 3
##    country      year     n
##    <chr>       <int> <int>
##  1 Afghanistan  1980     1
##  2 Afghanistan  1981     1
##  3 Afghanistan  1982     1
##  4 Afghanistan  1983     1
##  5 Afghanistan  1984     1
##  6 Afghanistan  1985     1
##  7 Afghanistan  1986     1
##  8 Afghanistan  1987     1
##  9 Afghanistan  1988     1
## 10 Afghanistan  1989     1
## # ... with 7,230 more rows
…
diagnosis

gender

age

cases (het aantal TB-gevallen)

Laten we eerst naar een dataset in een lang formaat gaan, door alle verschillende soorten diagnoses en gevallen in een lange lijst te verzamelen. We zullen de eerste 4 kolommen niet verzamelen. De oude kolomnamen zullen een variabele “type” zijn, en de getallen zullen “gevallen” worden genoemd.

who %>%
  gather(key = type, value = cases, -country:-year)

## # A tibble: 405,440 x 6
##    country     iso2  iso3   year type        cases
##    <chr>       <chr> <chr> <int> <chr>       <int>
##  1 Afghanistan AF    AFG    1980 new_sp_m014    NA
##  2 Afghanistan AF    AFG    1981 new_sp_m014    NA
##  3 Afghanistan AF    AFG    1982 new_sp_m014    NA
##  4 Afghanistan AF    AFG    1983 new_sp_m014    NA
##  5 Afghanistan AF    AFG    1984 new_sp_m014    NA
##  6 Afghanistan AF    AFG    1985 new_sp_m014    NA
##  7 Afghanistan AF    AFG    1986 new_sp_m014    NA
##  8 Afghanistan AF    AFG    1987 new_sp_m014    NA
##  9 Afghanistan AF    AFG    1988 new_sp_m014    NA
## 10 Afghanistan AF    AFG    1989 new_sp_m014    NA
## # ... with 405,430 more rows

Zie je wat er gebeurd is? Kijk maar eens goed.

Had je al begrepen dat we eerst de data moesten verzamelen? Zo ja, gefeliciteerd, je begint te snappen wat data-transformatie is en welke transformaties je waar nodig hebt. Zo nee, maak je geen zorgen. Onthoud dat ik je vertelde dat dit een moeilijke vaardigheid is. Bovendien zijn er waarschijnlijk verschillende manieren om dit te doen.

We kunnen ons ontdoen van iso2 en iso3. Merk op dat ze nuttig kunnen zijn om de gegevens te verbinden met andere gegevens over landen, maar we hebben geen plannen om dat te doen. Laten we ze gewoon uit de weg ruimen.

who %>%
  gather(key = type, value = cases, -country:-year) %>%
  select(-iso2, -iso3)

## # A tibble: 405,440 x 4
##    country      year type        cases
##    <chr>       <int> <chr>       <int>
##  1 Afghanistan  1980 new_sp_m014    NA
##  2 Afghanistan  1981 new_sp_m014    NA
##  3 Afghanistan  1982 new_sp_m014    NA
##  4 Afghanistan  1983 new_sp_m014    NA
##  5 Afghanistan  1984 new_sp_m014    NA
##  6 Afghanistan  1985 new_sp_m014    NA
##  7 Afghanistan  1986 new_sp_m014    NA
##  8 Afghanistan  1987 new_sp_m014    NA
##  9 Afghanistan  1988 new_sp_m014    NA
## 10 Afghanistan  1989 new_sp_m014    NA
## # ... with 405,430 more rows
…
Dat is beter, nietwaar? Trouwens, zie je hoe we op elk punt voortbouwen op wat we eerder deden? Op deze manier kunnen we gemakkelijk fouten veranderen als we er maken. Pas als onze gegevens correct zijn getransformeerd, slaan we ze op, en zetten we de code in ons loadscript.

Maar nu kunnen we de gegevens scheiden. Het eerste deel wordt de is_new variabele, het tweede deel de diagnose variabele, en het laatste deel… wel, het bevat zowel het geslacht (f/m) als de leeftijdscategorie. Laten we het gewoon age_gender noemen, en dat probleem later aanpakken.

who %>%
  gather(key = type, value = cases, -country:-year) %>%
  select(-iso2, -iso3) %>%
  mutate(type = str_replace(type, "newrel", "new_rel")) %>%
  separate(type, into = c("is_new", "diagnosis", "gender_age"))

## # A tibble: 405,440 x 6
##    country      year is_new diagnosis gender_age cases
##    <chr>       <int> <chr>  <chr>     <chr>      <int>
##  1 Afghanistan  1980 new    sp        m014          NA
##  2 Afghanistan  1981 new    sp        m014          NA
##  3 Afghanistan  1982 new    sp        m014          NA
##  4 Afghanistan  1983 new    sp        m014          NA
##  5 Afghanistan  1984 new    sp        m014          NA
##  6 Afghanistan  1985 new    sp        m014          NA
##  7 Afghanistan  1986 new    sp        m014          NA
##  8 Afghanistan  1987 new    sp        m014          NA
##  9 Afghanistan  1988 new    sp        m014          NA
## 10 Afghanistan  1989 new    sp        m014          NA
## # ... with 405,430 more rows
…
