Chapter 12 Tutorial - tijdsdata | Exploratieve en Descriptieve Data Analyse
…
class(date)

## [1] "Date"

Well, that seems alright.

Let’s make a bunch of dates - let’s say each day in april. Do you still remember the code blow? We saw it to create data.frames a long time ago. We use tbl_df to transform the data.frame to the easier to print tibble format.

dates_of_april <- data.frame(year = 2019,
           month = 4,
           day = 1:30) %>%
    tbl_df()
dates_of_april

## # A tibble: 30 x 3
##     year month   day
##    <dbl> <dbl> <int>
##  1  2019     4     1
##  2  2019     4     2
##  3  2019     4     3
##  4  2019     4     4
##  5  2019     4     5
##  6  2019     4     6
##  7  2019     4     7
##  8  2019     4     8
##  9  2019     4     9
## 10  2019     4    10
## # ... with 20 more rows

Using mutate, we can now add the date as a separate variable.

dates_of_april %>%
    mutate(date = make_date(year, month, day)) -> dates_of_april
dates_of_april

## # A tibble: 30 x 4
##     year month   day date      
##    <dbl> <dbl> <int> <date>    
##  1  2019     4     1 2019-04-01
##  2  2019     4     2 2019-04-02
##  3  2019     4     3 2019-04-03
##  4  2019     4     4 2019-04-04
##  5  2019     4     5 2019-04-05
##  6  2019     4     6 2019-04-06
##  7  2019     4     7 2019-04-07
##  8  2019     4     8 2019-04-08
##  9  2019     4     9 2019-04-09
## 10  2019     4    10 2019-04-10
## # ... with 20 more rows
…
## Rows: 30
## Columns: 4
## $ year  <dbl> 2019, 2019, 2019, 2019, 2019, 2019, 2019, 2019, 2019, 2019, 2...
## $ month <dbl> 4, 4, 4, 4, 4, 4, 4, 4, 4, 4, 4, 4, 4, 4, 4, 4, 4, 4, 4, 4, 4...
## $ day   <int> 1, 2, 3, 4, 5, 6, 7, 8, 9, 10, 11, 12, 13, 14, 15, 16, 17, 18...
## $ date  <date> 2019-04-01, 2019-04-02, 2019-04-03, 2019-04-04, 2019-04-05, ...

Of course, this only solves part of the problem. How do we go from something as “28-06-1991” to 28 and 6 and 1991 to a date? Suppose we have a table of dates where each date is stored as a character, like below. [^unite]

[^unite]; You can actually make this table yourself by uniting the year, month, day column of dates_of_april using tidyr’s unite.

dates_of_april_text

## # A tibble: 30 x 1
##    date     
##    <chr>    
##  1 2019-4-1 
##  2 2019-4-2 
##  3 2019-4-3 
##  4 2019-4-4 
##  5 2019-4-5 
##  6 2019-4-6 
##  7 2019-4-7 
##  8 2019-4-8 
##  9 2019-4-9 
## 10 2019-4-10
## # ... with 20 more rows
…
dates_of_april_text %>%
    glimpse()

## Rows: 30
## Columns: 1
## $ date <chr> "2019-4-1", "2019-4-2", "2019-4-3", "2019-4-4", "2019-4-5", "2...

However, using separate, we could separate these characters, and then applying make_date.

library(tidyr)
dates_of_april_text %>%
    separate(date, into = c("year","month","day")) %>%
    mutate(date = make_date(year, month, day))

## # A tibble: 30 x 4
##    year  month day   date      
##    <chr> <chr> <chr> <date>    
##  1 2019  4     1     2019-04-01
##  2 2019  4     2     2019-04-02
##  3 2019  4     3     2019-04-03
##  4 2019  4     4     2019-04-04
##  5 2019  4     5     2019-04-05
##  6 2019  4     6     2019-04-06
##  7 2019  4     7     2019-04-07
##  8 2019  4     8     2019-04-08
##  9 2019  4     9     2019-04-09
## 10 2019  4     10    2019-04-10
## # ... with 20 more rows
…
## [1] "1991-06-28"

It turns 91 into 1991. But if we give it year 19 (i.e. the same day in 2019), it will turn 19 in 2019.

ymd("190628")

## [1] "2019-06-28"

This is very helpful of course (unless we are looking for the year 1919). However, after the Y2K bug, we will typically find yyyy-dates.53

So, let’s go back to our table.

dates_of_april_text

## # A tibble: 30 x 1
##    date     
##    <chr>    
##  1 2019-4-1 
##  2 2019-4-2 
##  3 2019-4-3 
##  4 2019-4-4 
##  5 2019-4-5 
##  6 2019-4-6 
##  7 2019-4-7 
##  8 2019-4-8 
##  9 2019-4-9 
## 10 2019-4-10
## # ... with 20 more rows

Luckily, ymd works with vectors, as well as with singular dates. So, instead of this

dates_of_april_text %>%
    separate(date, into = c("year","month","day")) %>%
    mutate(date = make_date(year, month, day))

we can now just do this

dates_of_april_text %>%
    mutate(date = ymd(date))

## # A tibble: 30 x 1
##    date      
##    <date>    
##  1 2019-04-01
##  2 2019-04-02
##  3 2019-04-03
##  4 2019-04-04
##  5 2019-04-05
##  6 2019-04-06
##  7 2019-04-07
##  8 2019-04-08
##  9 2019-04-09
## 10 2019-04-10
## # ... with 20 more rows
…
dmy("04-01-2019")

## [1] "2019-01-04"

Lubridate will not see any problems because this is not an incorrect date. But, we are no longer taking about the first of April. We are talking about the 4 of January. The second of april will become the 4th of February using this code. Lubridate will sense that something is going wrong when we get to the 13th of april.

dmy("04-13-2019")

## [1] NA

Now lubridate will fail to see this as a correct dmy-date, and return an NA. However, it is good to know that lubridate doesn’t learn very good from its mistakes. Suppose we have again a whole data set of dates in this format.54

dates_of_april_us

## # A tibble: 30 x 1
##    date     
##    <chr>    
##  1 4-1-2019 
##  2 4-2-2019 
##  3 4-3-2019 
##  4 4-4-2019 
##  5 4-5-2019 
##  6 4-6-2019 
##  7 4-7-2019 
##  8 4-8-2019 
##  9 4-9-2019 
## 10 4-10-2019
## # ... with 20 more rows
…
